BioStatistics - 11 Modelling
…
Another more visual approach is to plot the ROC-curve. This is done for all models in the workflow set. First, the specificity and sensitivity is calculated for each model with a convenience function roc_curve()

roc_auc_results <- workflow_ids |>
  map( ~ {
    workflow_set_fit[[.x]] |>
      collect_predictions() |>
      roc_curve(truth = Patient_status,
                .pred_MS,
                event_level = "second") |>
      mutate(wflow_id = .x)
  }) |> bind_rows()

roc_auc_results

# A tibble: 564 × 4
   .threshold specificity sensitivity wflow_id 
        <dbl>       <dbl>       <dbl> <chr>    
 1   -Inf             0         1     stand_log
 2      0.498         0         1     stand_log
 3      0.505         0         0.988 stand_log
 4      0.570         0.1       0.988 stand_log
 5      0.653         0.1       0.976 stand_log
 6      0.714         0.1       0.963 stand_log
 7      0.762         0.2       0.963 stand_log
 8      0.781         0.2       0.951 stand_log
 9      0.782         0.3       0.951 stand_log
10      0.789         0.3       0.939 stand_log
# ℹ 554 more rows
…
