BioStatistics - 15 Linear Modelling
…
Another more visual approach is to plot the ROC-curve for each model. First, the specificity and sensitivity is calculated for each model with a convenience function roc_curve():

roc_auc_results <- workflow_ids |>
  map(function(id) {
    workflow_set_fit[[id]] |>
      collect_predictions() |>
      roc_curve(truth = Patient_status,
                .pred_MS,
                event_level = "second") |>
      mutate(wflow_id = id)
  }) |> bind_rows()

roc_auc_results

# A tibble: 564 × 4
   .threshold specificity sensitivity wflow_id 
        <dbl>       <dbl>       <dbl> <chr>    
 1   -Inf             0         1     stand_log
 2      0.707         0         1     stand_log
 3      0.771         0         0.988 stand_log
 4      0.778         0         0.976 stand_log
 5      0.797         0         0.963 stand_log
 6      0.801         0         0.951 stand_log
 7      0.803         0         0.939 stand_log
 8      0.813         0         0.927 stand_log
 9      0.824         0.1       0.927 stand_log
10      0.832         0.2       0.927 stand_log
# ℹ 554 more rows
…
