BioStatistics - Applied bio-statistical methods
…
Show the code

library("tidymodels")
tidymodels::tidymodels_prefer()

In this chapter, each of the following parts delve into an area of statistics. This ranges from biostatistics such as diversity measures and different statistical models such as Ordinary Linear Regression (OLS). The purpose is to introduce the reader to the statistical concepts that are often used in Bioinformatics and Biostatistics. The chapters are structured in a similar way. First, the method is introduced, followed by the math behind it, and lastly, a visual representation using the tidymodels package.

In the first part of the book, the iris data set was used to exemplify the usage of the tidymodels package. For the chapters pertaining to diversit measures, a count matrix from a metagenomics study is used instead. The raw data can be obtained from (Cox et al. 2021). Each row is a sample from a person, each column is a genus and the values represent the abundance of said genus in said sample. Explaining how the count matrix is acquired from raw sequences is out of scope for this book. Scripts used for the pre-processing exists on the GitHub page from which this book is created, located in the src/ sub-folder.

A snippet of the data set can be seen below:

count_matrix <- readr::read_rds("https://github.com/WilliamH-R/BioStatistics/raw/main/data/count_matrix/count_matrix.rds")
count_matrix

# A tibble: 456 × 124
   Sample      Actinomyces Adlercreutzia Agathobacter Akkermansia Alistipes
   <chr>             <int>         <int>        <int>       <int>     <int>
 1 SRR14214860           0            11          190         486       272
 2 SRR14214861           0            12            0           5      1158
 3 SRR14214862           0             0            0           0         0
 4 SRR14214863           4             0          505          94       361
 5 SRR14214864           0            45          744           3       794
 6 SRR14214865           0            29          924         933        45
 7 SRR14214866           0            41         1187         308       145
 8 SRR14214867           0            45          648         323       193
 9 SRR14214868           0             0         6973           0       287
10 SRR14214869           0             0          362         270        30
# ℹ 446 more rows
# ℹ 118 more variables: Anaerofustis <int>, Anaerostipes <int>,
#   Anaerotruncus <int>, Angelakisella <int>, Bacteroides <int>,
#   Barnesiella <int>, Bifidobacterium <int>, Bilophila <int>, Blautia <int>,
#   Butyricicoccus <int>, Butyricimonas <int>, `CAG-352` <int>, `CAG-56` <int>,
#   `Candidatus Soleaferrea` <int>, `Candidatus Stoquefichus` <int>,
#   Catenibacillus <int>, Catenibacterium <int>, …
…
Microbiome data is inherently compositional, meaning that the sum of all genera in a sample is constant, so the count numbers indicate the proportion of a specific genera. As a consequence of compositional data, commonly used statistical tools are not applicable. To avoid this compositionality, the count matrix is transformed using the centered log-ratio (clr) transformation.

count_matrix_clr <- readr::read_rds("https://github.com/WilliamH-R/BioStatistics/raw/main/data/count_matrix/count_matrix_clr.rds")
count_matrix_clr

# A tibble: 456 × 124
   Sample      Actinomyces Adlercreutzia Agathobacter Akkermansia Alistipes
   <chr>             <dbl>         <dbl>        <dbl>       <dbl>     <dbl>
 1 SRR14214860        0           -1.83          1.02       1.96      1.38 
 2 SRR14214861        0           -2.11          0         -2.98      2.46 
 3 SRR14214862        0            0             0          0         0    
 4 SRR14214863       -3.41         0             1.43      -0.255     1.09 
 5 SRR14214864        0           -0.495         2.31      -3.20      2.38 
 6 SRR14214865        0           -1.52          1.94       1.95     -1.08 
 7 SRR14214866        0           -0.835         2.53       1.18      0.428
 8 SRR14214867        0           -0.581         2.09       1.39      0.876
 9 SRR14214868        0            0             3.85       0         0.658
10 SRR14214869        0            0             1.39       1.10     -1.10 
# ℹ 446 more rows
# ℹ 118 more variables: Anaerofustis <dbl>, Anaerostipes <dbl>,
#   Anaerotruncus <dbl>, Angelakisella <dbl>, Bacteroides <dbl>,
#   Barnesiella <dbl>, Bifidobacterium <dbl>, Bilophila <dbl>, Blautia <dbl>,
#   Butyricicoccus <dbl>, Butyricimonas <dbl>, `CAG-352` <dbl>, `CAG-56` <dbl>,
#   `Candidatus Soleaferrea` <dbl>, `Candidatus Stoquefichus` <dbl>,
#   Catenibacillus <dbl>, Catenibacterium <dbl>, …
…
